support/waves/stoplight_example/top.vcd
$date
	Thu Jan 22 14:45:26 2026
$end
$version
	Icarus Verilog
$end
$timescale
	10ps
$end
$scope module top_tb $end
$var wire 1 ! yellow $end
$var wire 1 " red $end
$var wire 1 # green $end
$var reg 1 $ button $end
$var reg 1 % clk $end
$var reg 1 & nrst $end
$var integer 32 ' tb_passed [31:0] $end
$var integer 32 ( tb_test_num [31:0] $end
$scope module DUT $end
$var wire 1 $ button $end
$var wire 1 % clk $end
$var wire 1 & nrst $end
$var wire 1 ! yellow $end
$var wire 1 " red $end
$var wire 1 # green $end
$var wire 1 ) count_max $end
$var wire 1 * count_en $end
$var wire 1 + count_clr $end
$scope module src1 $end
$var wire 1 % clk $end
$var wire 1 & nrst $end
$var wire 1 * enable $end
$var wire 1 + clear $end
$var reg 8 , count_d [7:0] $end
$var reg 8 - count_q [7:0] $end
$var reg 1 ) max_count $end
$scope begin count_register $end
$upscope $end
$scope begin next_count_logic $end
$upscope $end
$scope begin output_logic $end
$upscope $end
$upscope $end
$scope module src2 $end
$var wire 1 $ button $end
$var wire 1 % clk $end
$var wire 1 ) count_max $end
$var wire 1 & nrst $end
$var reg 1 + count_clr $end
$var reg 1 * count_en $end
$var reg 1 # green $end
$var reg 1 " red $end
$var reg 2 . state_d [1:0] $end
$var reg 2 / state_q [1:0] $end
$var reg 1 ! yellow $end
$scope begin count_register $end
$upscope $end
$scope begin next_state_logic $end
$upscope $end
$upscope $end
$upscope $end
$scope task reset_dut $end
$upscope $end
$upscope $end
$enddefinitions $end
#0
$dumpvars
b0 /
b0 .
b0 -
b1 ,
0+
1*
0)
bx (
bx '
0&
0%
0$
0#
1"
0!
$end
#500
1%
#1000
0%
#1500
1%
#2000
1&
0%
#2500
b10 ,
b1 -
1%
#3000
0%
#3500
b11 ,
b10 -
1%
#4000
0%
#4500
b100 ,
b11 -
1%
#5000
0%
#5500
b101 ,
b100 -
1%
#6000
0%
#6500
b110 ,
b101 -
1%
#7000
0%
#7500
b111 ,
b110 -
1%
#8000
0%
#8500
b1000 ,
b111 -
1%
#9000
0%
#9500
b1001 ,
b1000 -
1%
#10000
0%
#10500
b1010 ,
b1001 -
1%
#11000
0%
#11500
b10 .
1*
1"
1)
b0 ,
b1010 -
1%
#12000
0%
#12500
1+
1#
0*
0"
0)
b10 /
b0 -
1%
